{
  "user_type": "admin_type",
  "user_info": {
    "designation": "DEMO",
    "username": "AEPS.DEMO",
    "avatar": "",
    "name": "Agam Gupta",
    "mobile_no": "9953523014",
    "email": "info@hubco.in",
    "user_id": "bcfeed35-e880-433c-a519-cd9a3e64c88d"
  },
  "retailer_info": {
    "kyc_status": "pending",
    "avatar": "https://hubco-pay.s3.amazonaws.com/uploads/retailer/avatar/2/a38f568c-5e39-443c-8d06-b3940e404734.jpg",
    "retailer_code": "R4E0AC747955CD",
    "enrollment_date": "2020-06-06",
    "name": "Agam Gupta",
    "father_name": "Sukhmal Gupta",
    "spouse_name": null,
    "dob": "1990-03-28",
    "age": "30 years",
    "gender": null,
    "mobile_no": "9953523014",
    "email": "info@hubco.in",
    "pan_no": "BKIPG1419A",
    "aadhaar_no": "842698443393",
    "address": "H-30, 2nd Floor, Laxmi Nagar",
    "pincode": "110092",
    "state": "Delhi",
    "beneficiary_name": null,
    "bank_code": null,
    "ifsc_code": null,
    "account_no": null,
    "upi_id": null,
    "retailer_id": "8b300b76-2cc2-43e8-8015-d171cbc1a759",
    "balance": 0.0,
    "hold_balance": 0.0,
    "available_balance": 0.0,
    "currency_format": "\u0026#8377"
  }
}